<svg width="24" height="24" viewBox="0 0 24 24" fill="none" xmlns="http://www.w3.org/2000/svg">
<path fill-rule="evenodd" clip-rule="evenodd" d="M5 3.5H4.5V4V19.5V20H5H19.5H20V19.5V11H19V19H5.5V4.5H15.5V3.5H5ZM8.79572 13.2202L18.5101 3.80298L20.7127 6.00553L10.9931 15.4278L8.06055 16.1609L8.79572 13.2202ZM9.43492 14.7866L9.58601 14.1822C9.70804 14.1774 9.8337 14.1939 9.93087 14.2395C9.9973 14.2707 10.0489 14.3142 10.0878 14.3799C10.1153 14.4264 10.1445 14.4976 10.1603 14.6052L9.43492 14.7866ZM19.2874 5.99446L11.0203 14.0087C10.9986 13.961 10.9746 13.9149 10.9483 13.8704C10.7963 13.6137 10.5835 13.4413 10.3562 13.3345C10.2997 13.3079 10.2424 13.2854 10.1847 13.2665L18.4992 5.20629L19.2874 5.99446Z" fill="#27282B"/>
</svg>
