<svg width="64" height="64" viewBox="0 0 64 64" fill="none" xmlns="http://www.w3.org/2000/svg">
<path d="M12 15C12 13.3431 13.3431 12 15 12H49.1803C50.8372 12 52.1803 13.3431 52.1803 15V49.1803C52.1803 50.8372 50.8372 52.1803 49.1803 52.1803H15C13.3431 52.1803 12 50.8372 12 49.1803V15Z" fill="white"/>
<path fill-rule="evenodd" clip-rule="evenodd" d="M49.1803 13H15C13.8954 13 13 13.8954 13 15V49.1803C13 50.2849 13.8954 51.1803 15 51.1803H49.1803C50.2849 51.1803 51.1803 50.2849 51.1803 49.1803V15C51.1803 13.8954 50.2849 13 49.1803 13ZM15 12C13.3431 12 12 13.3431 12 15V49.1803C12 50.8372 13.3431 52.1803 15 52.1803H49.1803C50.8372 52.1803 52.1803 50.8372 52.1803 49.1803V15C52.1803 13.3431 50.8372 12 49.1803 12H15Z" fill="#9A9FB0"/>
<path fill-rule="evenodd" clip-rule="evenodd" d="M32.0902 20.959H46.8935V19.959H32.0902V20.959ZM32.0902 37.877H46.8935V36.877H32.0902V37.877ZM42.664 23.7788H32.0902V22.7788H42.664V23.7788ZM32.0902 40.6968H42.664V39.6968H32.0902V40.6968ZM38.4345 26.5984H32.0902V25.5984H38.4345V26.5984ZM32.0902 43.5164H38.4345V42.5164H32.0902V43.5164Z" fill="#27282B"/>
<path d="M55 45.1313C55 50.5817 50.5816 55.0002 45.1312 55.0002C39.6808 55.0002 35.2623 50.5817 35.2623 45.1313C35.2623 39.6809 39.6808 35.2625 45.1312 35.2625C50.5816 35.2625 55 39.6809 55 45.1313Z" fill="white"/>
<path fill-rule="evenodd" clip-rule="evenodd" d="M45.1312 54.0002C50.0293 54.0002 54 50.0294 54 45.1313C54 40.2332 50.0293 36.2625 45.1312 36.2625C40.233 36.2625 36.2623 40.2332 36.2623 45.1313C36.2623 50.0294 40.233 54.0002 45.1312 54.0002ZM45.1312 55.0002C50.5816 55.0002 55 50.5817 55 45.1313C55 39.6809 50.5816 35.2625 45.1312 35.2625C39.6808 35.2625 35.2623 39.6809 35.2623 45.1313C35.2623 50.5817 39.6808 55.0002 45.1312 55.0002Z" fill="#9A9FB0"/>
<path fill-rule="evenodd" clip-rule="evenodd" d="M19.394 44.8052C19.394 42.5447 21.2425 40.7227 23.5061 40.7227C25.7705 40.7227 27.6135 42.5455 27.6135 44.8052V45.3052H19.394V44.8052ZM20.4349 44.3052H26.5728C26.3322 42.8419 25.053 41.7227 23.5061 41.7227C21.9584 41.7227 20.6761 42.8424 20.4349 44.3052Z" fill="url(#paint0_linear)"/>
<path fill-rule="evenodd" clip-rule="evenodd" d="M23.7527 37.5549C23.67 37.8098 23.5324 38.2338 23.1486 38.6098C22.7509 38.9994 22.3433 39.1637 22.0842 39.2681C22.0614 39.2773 22.0398 39.286 22.0195 39.2944C21.9605 39.3186 21.92 39.3364 21.8893 39.352C21.8982 39.8382 22.0626 40.1559 22.2987 40.3603C22.5521 40.5796 22.9515 40.7225 23.506 40.7225C24.503 40.7225 25.3041 39.922 25.3041 38.9432C25.3041 38.3992 25.1578 38.0055 24.9331 37.7539C24.7157 37.5104 24.3744 37.3428 23.8561 37.3428C23.8457 37.3428 23.8372 37.3431 23.8303 37.3435C23.8205 37.3637 23.8043 37.4015 23.7813 37.4684C23.7724 37.4943 23.763 37.5233 23.7527 37.5549ZM23.8057 37.3465C23.8057 37.3465 23.8059 37.3464 23.8065 37.3463ZM23.129 36.6207C23.3254 36.4222 23.5795 36.3428 23.8561 36.3428C24.6071 36.3428 25.2398 36.5959 25.6791 37.0879C26.1111 37.5717 26.3041 38.2282 26.3041 38.9432C26.3041 40.482 25.0475 41.7225 23.506 41.7225C22.7913 41.7225 22.1321 41.5386 21.6443 41.1164C21.1459 40.685 20.8889 40.0588 20.8889 39.31C20.8889 39.0436 20.9827 38.8139 21.1708 38.6402C21.3234 38.4992 21.5167 38.4198 21.639 38.3696L21.6395 38.3694C21.6599 38.361 21.6802 38.3527 21.7004 38.3445C21.9546 38.241 22.1967 38.1425 22.4489 37.8954C22.6491 37.6993 22.7146 37.5037 22.7999 37.2488C22.8113 37.2148 22.8231 37.1797 22.8356 37.1433C22.882 37.0083 22.9597 36.7917 23.129 36.6207Z" fill="url(#paint1_linear)"/>
<path fill-rule="evenodd" clip-rule="evenodd" d="M22.9573 35.8317C22.3134 35.9832 21.6771 36.3706 20.984 36.8905C20.4833 37.266 20.2161 38.1021 20.2584 39.2028C20.2996 40.273 20.6316 41.4231 21.1127 42.225L20.2552 42.7395C19.679 41.7791 19.3061 40.462 19.2591 39.2412C19.2134 38.0509 19.4748 36.7723 20.384 36.0905C21.1007 35.5529 21.8742 35.0592 22.7283 34.8582C23.6097 34.6508 24.5355 34.7642 25.5232 35.3568C26.5588 35.9781 27.3227 37.2669 27.606 38.636C27.8917 40.0172 27.7126 41.5962 26.7074 42.8023L25.9392 42.1621C26.6964 41.2535 26.8697 40.0129 26.6267 38.8386C26.3813 37.6525 25.7354 36.6503 25.0087 36.2143C24.234 35.7495 23.5738 35.6866 22.9573 35.8317Z" fill="url(#paint2_linear)"/>
<path fill-rule="evenodd" clip-rule="evenodd" d="M18.5491 27.7505C18.5491 25.1824 20.6493 23.1113 23.2223 23.1113C25.7962 23.1113 27.8903 25.1832 27.8903 27.7505V28.2505H18.5491V27.7505ZM19.5835 27.2505H26.8559C26.6106 25.4785 25.0795 24.1113 23.2223 24.1113C21.3645 24.1113 19.8296 25.4791 19.5835 27.2505Z" fill="url(#paint3_linear)"/>
<path fill-rule="evenodd" clip-rule="evenodd" d="M23.2224 18.8442C22.0282 18.8442 21.0671 19.8033 21.0671 20.9778C21.0671 22.1523 22.0282 23.1113 23.2224 23.1113C24.4165 23.1113 25.3776 22.1523 25.3776 20.9778C25.3776 19.8033 24.4165 18.8442 23.2224 18.8442ZM20.0671 20.9778C20.0671 19.2433 21.4837 17.8442 23.2224 17.8442C24.9611 17.8442 26.3776 19.2433 26.3776 20.9778C26.3776 22.7123 24.9611 24.1113 23.2224 24.1113C21.4837 24.1113 20.0671 22.7123 20.0671 20.9778Z" fill="url(#paint4_linear)"/>
<path fill-rule="evenodd" clip-rule="evenodd" d="M48.7751 39.8132L41.8438 46.7446L41.1096 49.6812L44.0462 48.9471L50.9776 42.0157L48.7751 39.8132ZM42.6351 47.7025L42.484 48.3068L43.2093 48.1255C43.1935 48.0179 43.1644 47.9467 43.1368 47.9003C43.0979 47.8346 43.0463 47.7911 42.9799 47.7599C42.8827 47.7142 42.7571 47.6977 42.6351 47.7025ZM44.0632 47.5159L49.5634 42.0157L48.7751 41.2274L43.2202 46.7824C43.2823 46.8022 43.3443 46.8262 43.4052 46.8548C43.6325 46.9617 43.8453 47.1341 43.9973 47.3907C44.0212 47.4311 44.0432 47.4728 44.0632 47.5159Z" fill="url(#paint5_linear)"/>
<defs>
<linearGradient id="paint0_linear" x1="26.635" y1="44.8278" x2="20.6854" y2="40.3106" gradientUnits="userSpaceOnUse">
<stop stop-color="#4164DA"/>
<stop offset="1" stop-color="#587CF4"/>
</linearGradient>
<linearGradient id="paint1_linear" x1="25.6595" y1="41.1621" x2="20.4296" y2="38.9337" gradientUnits="userSpaceOnUse">
<stop stop-color="#4164DA"/>
<stop offset="1" stop-color="#587CF4"/>
</linearGradient>
<linearGradient id="paint2_linear" x1="26.7199" y1="41.9648" x2="18.655" y2="38.3664" gradientUnits="userSpaceOnUse">
<stop stop-color="#4164DA"/>
<stop offset="1" stop-color="#587CF4"/>
</linearGradient>
<linearGradient id="paint3_linear" x1="26.7782" y1="27.7152" x2="20.0826" y2="22.5635" gradientUnits="userSpaceOnUse">
<stop stop-color="#4164DA"/>
<stop offset="1" stop-color="#587CF4"/>
</linearGradient>
<linearGradient id="paint4_linear" x1="25.6264" y1="23.4585" x2="19.5325" y2="20.8611" gradientUnits="userSpaceOnUse">
<stop stop-color="#4164DA"/>
<stop offset="1" stop-color="#587CF4"/>
</linearGradient>
<linearGradient id="paint5_linear" x1="49.8028" y1="48.6533" x2="40.2535" y2="44.611" gradientUnits="userSpaceOnUse">
<stop stop-color="#4164DA"/>
<stop offset="1" stop-color="#587CF4"/>
</linearGradient>
</defs>
</svg>
