<svg width="64" height="64" viewBox="0 0 64 64" fill="none" xmlns="http://www.w3.org/2000/svg">
<path d="M13 17C13 15.3431 14.3431 14 16 14H49C50.6569 14 52 15.3431 52 17V48C52 49.6569 50.6569 51 49 51H16C14.3431 51 13 49.6569 13 48V17Z" fill="white"/>
<path fill-rule="evenodd" clip-rule="evenodd" d="M49 15H16C14.8954 15 14 15.8954 14 17V48C14 49.1046 14.8954 50 16 50H49C50.1046 50 51 49.1046 51 48V17C51 15.8954 50.1046 15 49 15ZM16 14C14.3431 14 13 15.3431 13 17V48C13 49.6569 14.3431 51 16 51H49C50.6569 51 52 49.6569 52 48V17C52 15.3431 50.6569 14 49 14H16Z" fill="#9A9FB0"/>
<path fill-rule="evenodd" clip-rule="evenodd" d="M46.9683 23.5H34V22.5H46.9683V23.5Z" fill="#27282B"/>
<path fill-rule="evenodd" clip-rule="evenodd" d="M19.5 20.5H25.3236V21.5H20.5V28.5H27.9005V26.5001H28.9005V29.5H19.5V20.5ZM30.3448 21.7343L24.6154 27.1905L21.9629 24.6645L22.6525 23.9403L24.6154 25.8096L29.6552 21.0101L30.3448 21.7343Z" fill="url(#paint0_linear)"/>
<path fill-rule="evenodd" clip-rule="evenodd" d="M42.1905 26.5713H34V25.5713H42.1905V26.5713Z" fill="#27282B"/>
<path fill-rule="evenodd" clip-rule="evenodd" d="M46.9683 38.5H34V37.5H46.9683V38.5Z" fill="#27282B"/>
<path fill-rule="evenodd" clip-rule="evenodd" d="M19.5 35.5H25.3236V36.5H20.5V43.5H27.9005V41.5001H28.9005V44.5H19.5V35.5ZM30.3448 36.7343L24.6154 42.1905L21.9629 39.6645L22.6525 38.9403L24.6154 40.8096L29.6552 36.0101L30.3448 36.7343Z" fill="url(#paint1_linear)"/>
<path fill-rule="evenodd" clip-rule="evenodd" d="M42.1905 41.5713H34V40.5713H42.1905V41.5713Z" fill="#27282B"/>
<path d="M54 44.5C54 49.7467 49.7467 54 44.5 54C39.2533 54 35 49.7467 35 44.5C35 39.2533 39.2533 35 44.5 35C49.7467 35 54 39.2533 54 44.5Z" fill="white"/>
<path fill-rule="evenodd" clip-rule="evenodd" d="M44.5 53C49.1944 53 53 49.1944 53 44.5C53 39.8056 49.1944 36 44.5 36C39.8056 36 36 39.8056 36 44.5C36 49.1944 39.8056 53 44.5 53ZM44.5 54C49.7467 54 54 49.7467 54 44.5C54 39.2533 49.7467 35 44.5 35C39.2533 35 35 39.2533 35 44.5C35 49.7467 39.2533 54 44.5 54Z" fill="#9A9FB0"/>
<path d="M40 43.9598H43.9815V40H40V43.9598ZM41.3433 41.336H42.6382V42.6238H41.3433V41.336Z" fill="url(#paint2_linear)"/>
<path d="M40 49.0001H43.9815V45.0403H40V49.0001ZM41.3433 46.3763H42.6382V47.6641H41.3433V46.3763Z" fill="url(#paint3_linear)"/>
<path d="M47.0092 45.0981H45.0767V47.0202H47.0092V45.0981Z" fill="url(#paint4_linear)"/>
<path d="M48.9418 47.02H47.0093V48.942H48.9418V47.02Z" fill="url(#paint5_linear)"/>
<path d="M45.0186 40V43.9598H49V40H45.0186ZM47.6568 42.6238H46.3618V41.336H47.6568V42.6238Z" fill="url(#paint6_linear)"/>
<defs>
<linearGradient id="paint0_linear" x1="29.0538" y1="28.5625" x2="19.2336" y2="23.5535" gradientUnits="userSpaceOnUse">
<stop stop-color="#4164DA"/>
<stop offset="1" stop-color="#587CF4"/>
</linearGradient>
<linearGradient id="paint1_linear" x1="29.0538" y1="43.5625" x2="19.2336" y2="38.5535" gradientUnits="userSpaceOnUse">
<stop stop-color="#4164DA"/>
<stop offset="1" stop-color="#587CF4"/>
</linearGradient>
<linearGradient id="paint2_linear" x1="43.5075" y1="43.5473" x2="39.661" y2="41.9102" gradientUnits="userSpaceOnUse">
<stop stop-color="#4164DA"/>
<stop offset="1" stop-color="#587CF4"/>
</linearGradient>
<linearGradient id="paint3_linear" x1="43.5075" y1="48.5876" x2="39.661" y2="46.9505" gradientUnits="userSpaceOnUse">
<stop stop-color="#4164DA"/>
<stop offset="1" stop-color="#587CF4"/>
</linearGradient>
<linearGradient id="paint4_linear" x1="46.7791" y1="46.82" x2="44.9121" y2="46.0253" gradientUnits="userSpaceOnUse">
<stop stop-color="#4164DA"/>
<stop offset="1" stop-color="#587CF4"/>
</linearGradient>
<linearGradient id="paint5_linear" x1="48.7118" y1="48.7418" x2="46.8447" y2="47.9472" gradientUnits="userSpaceOnUse">
<stop stop-color="#4164DA"/>
<stop offset="1" stop-color="#587CF4"/>
</linearGradient>
<linearGradient id="paint6_linear" x1="48.5261" y1="43.5473" x2="44.6795" y2="41.9102" gradientUnits="userSpaceOnUse">
<stop stop-color="#4164DA"/>
<stop offset="1" stop-color="#587CF4"/>
</linearGradient>
</defs>
</svg>
