<svg width="24" height="24" viewBox="0 0 24 24" fill="none" xmlns="http://www.w3.org/2000/svg">
<path fill-rule="evenodd"  clip-rule="evenodd" d="M12.4519 3.46191C11.3244 3.46191 10.3944 4.34466 10.3517 5.46216C8.23731 6.28782 6.72189 8.30668 6.72189 10.7038V13.799L5.67987 15.0101C4.74078 16.0997 5.53834 17.7514 6.95611 17.7514H8.66676C8.91398 19.5694 10.4908 20.9628 12.3886 20.9628C14.2852 20.9628 15.8619 19.5693 16.1091 17.7514H17.8197C19.2657 17.7514 20.0534 16.0412 19.0553 14.9642L18.1819 14.0228V10.7038C18.1819 8.30668 16.6665 6.28782 14.5521 5.46216C14.5094 4.34466 13.5794 3.46191 12.4519 3.46191ZM15.096 17.7514H9.67987C9.9178 19.0059 11.0347 19.9628 12.3886 19.9628C13.7412 19.9628 14.8581 19.006 15.096 17.7514ZM11.3538 5.54552L11.3502 5.53096C11.3565 4.94562 11.8413 4.46191 12.4519 4.46191C13.0625 4.46191 13.5472 4.94562 13.5536 5.53096L13.55 5.54552L13.5431 5.5708L13.5333 5.6066C13.5261 5.6332 13.5169 5.66953 13.5095 5.71087L13.4311 6.14679L13.8544 6.27718C15.7848 6.87185 17.1819 8.62385 17.1819 10.7038V14.4153L18.3221 15.6442C18.7078 16.0604 18.4213 16.7514 17.8197 16.7514H6.95611C6.36588 16.7514 6.07538 16.0827 6.43791 15.6623L7.72189 14.17V10.7038C7.72189 8.62385 9.11901 6.87185 11.0494 6.27718L11.4726 6.14679L11.3943 5.71087C11.3868 5.66953 11.3776 5.6332 11.3705 5.6066L11.3607 5.5708L11.3538 5.54552Z" fill="#9a9fb0"/>
</svg>
